<?xml version="1.0" encoding="UTF-8" standalone="no"?>
<!DOCTYPE svg PUBLIC "-//W3C//DTD SVG 1.1//EN"
 "http://www.w3.org/Graphics/SVG/1.1/DTD/svg11.dtd">
<!-- Generated by graphviz version 2.40.1 (20161225.0304)
 -->
<!-- Title: G Pages: 1 -->
<svg width="258pt" height="130pt"
 viewBox="0.00 0.00 257.51 130.00" xmlns="http://www.w3.org/2000/svg" xmlns:xlink="http://www.w3.org/1999/xlink">
<g id="graph0" class="graph" transform="scale(1 1) rotate(0) translate(4 126)">
<title>G</title>
<polygon fill="#ffffff" stroke="transparent" points="-4,4 -4,-126 253.5098,-126 253.5098,4 -4,4"/>
<!-- Test(0.0.1) -->
<g id="node1" class="node">
<title>Test(0.0.1)</title>
<ellipse fill="none" stroke="#000000" cx="127.702" cy="-104" rx="48.0844" ry="18"/>
<text text-anchor="middle" x="127.702" y="-99.8" font-family="Times,serif" font-size="14.00" fill="#000000">Test(0.0.1)</text>
</g>
<!-- Ground(0.0.1) -->
<g id="node2" class="node">
<title>Ground(0.0.1)</title>
<ellipse fill="none" stroke="#000000" cx="60.702" cy="-18" rx="60.9046" ry="18"/>
<text text-anchor="middle" x="60.702" y="-13.8" font-family="Times,serif" font-size="14.00" fill="#000000">Ground(0.0.1)</text>
</g>
<!-- Test(0.0.1)&#45;&gt;Ground(0.0.1) -->
<g id="edge1" class="edge">
<title>Test(0.0.1)&#45;&gt;Ground(0.0.1)</title>
<path fill="none" stroke="#000000" d="M114.1435,-86.5966C104.5806,-74.3218 91.6089,-57.6716 80.8403,-43.8492"/>
<polygon fill="#000000" stroke="#000000" points="83.377,-41.4102 74.4702,-35.6727 77.855,-45.7123 83.377,-41.4102"/>
</g>
<!-- Login(0.0.2) -->
<g id="node3" class="node">
<title>Login(0.0.2)</title>
<ellipse fill="none" stroke="#000000" cx="194.702" cy="-18" rx="54.6162" ry="18"/>
<text text-anchor="middle" x="194.702" y="-13.8" font-family="Times,serif" font-size="14.00" fill="#000000">Login(0.0.2)</text>
</g>
<!-- Test(0.0.1)&#45;&gt;Login(0.0.2) -->
<g id="edge2" class="edge">
<title>Test(0.0.1)&#45;&gt;Login(0.0.2)</title>
<path fill="none" stroke="#000000" d="M141.2604,-86.5966C150.8234,-74.3218 163.795,-57.6716 174.5636,-43.8492"/>
<polygon fill="#000000" stroke="#000000" points="177.549,-45.7123 180.9337,-35.6727 172.0269,-41.4102 177.549,-45.7123"/>
<text text-anchor="middle" x="187.599" y="-56.8" font-family="Times,serif" font-size="14.00" fill="#000000">(~&gt; 0.0)</text>
</g>
</g>
</svg>
